{
  "minecraft:adventure/root": {
    "criteria": {
      "killed_by_something": "2020-11-28 02:54:52 +0000"
    },
    "done": true
  },
  "minecraft:adventure/adventuring_time": {
    "criteria": {
      "minecraft:taiga": "2020-11-28 02:54:07 +0000",
      "minecraft:dark_forest": "2020-11-28 15:07:43 +0000"
    },
    "done": false
  },
  "DataVersion": 2584
}