{
  "minecraft:adventure/root": {
    "criteria": {
      "killed_by_something": "2020-11-28 03:05:28 +0000"
    },
    "done": true
  },
  "minecraft:adventure/adventuring_time": {
    "criteria": {
      "minecraft:taiga": "2020-11-28 02:58:21 +0000"
    },
    "done": false
  },
  "DataVersion": 2584
}